[
  {
    "title": "Shopier",
    "is_pro": false,
    "type": "elementor",
    "author": "Bosa Themes",
    "keywords": ["shopier", "ecommerce", "shop"],
    "categories": ["shop"],
    "template_url": {
      "content": "https://gitlab.com/starter-sites/shopier-demo-list/-/raw/main/demo/content.json",
      "options": "https://gitlab.com/starter-sites/shopier-demo-list/-/raw/main/demo/options.json",
      "widgets": "https://gitlab.com/starter-sites/shopier-demo-list/-/raw/main/demo/widgets.json"
    },
    "screenshot_url": "https://gitlab.com/starter-sites/shopier-demo-list/-/raw/main/screenshots/shopier-250-350.jpg",
    "demo_url": "https://demo.bosathemes.com/wps/shopier",
    "plugins": [
      {
        "name": "Kirki",
        "slug": "kirki"
      },
      {
        "name": "Breadcrumb NavXT",
        "slug": "breadcrumb-navxt"
      },
      {
        "name": "Elementor",
        "slug": "elementor"
      },
      {
        "name": "ElementsKit Lite",
        "slug": "elementskit-lite"
      },
      {
        "name": "Classic Widgets",
        "slug": "classic-widgets"
      },
      {
        "name": "Contact Form 7",
        "slug": "contact-form-7",
        "main_file": "wp-contact-form-7.php"
      },
      {
        "name": "Bosa Elementor Addons for WooCommerce",
        "slug": "bosa-elementor-for-woocommerce"
      },
      {
        "name": "WooCommerce",
        "slug": "woocommerce"
      },
      {
        "name": "YITH WooCommerce Compare",
        "slug": "yith-woocommerce-compare",
        "main_file": "init.php"
      },
      {
        "name": "YITH WooCommerce Wishlist",
        "slug": "yith-woocommerce-wishlist",
        "main_file": "init.php"
      }
    ]
  }
]
